quartus/simulation/qsim/AirFryerController.msim.vcd
$comment
	File created using the following command:
		vcd file AirFryerController.msim.vcd -direction
$end
$date
	Tue May 28 15:22:32 2024
$end
$version
	Questa Intel Starter FPGA Edition Version 2021.2
$end
$timescale
	1ps
$end

$scope module tempauxfsm_vhd_vec_tst $end
$var wire 1 ! clk $end
$var wire 1 " cooled $end
$var wire 1 # downTemp $end
$var wire 1 $ enCnt $end
$var wire 1 % enCool $end
$var wire 1 & init $end
$var wire 1 ' reset $end
$var wire 1 ( tempOut [7] $end
$var wire 1 ) tempOut [6] $end
$var wire 1 * tempOut [5] $end
$var wire 1 + tempOut [4] $end
$var wire 1 , tempOut [3] $end
$var wire 1 - tempOut [2] $end
$var wire 1 . tempOut [1] $end
$var wire 1 / tempOut [0] $end
$var wire 1 0 tempVal [7] $end
$var wire 1 1 tempVal [6] $end
$var wire 1 2 tempVal [5] $end
$var wire 1 3 tempVal [4] $end
$var wire 1 4 tempVal [3] $end
$var wire 1 5 tempVal [2] $end
$var wire 1 6 tempVal [1] $end
$var wire 1 7 tempVal [0] $end
$var wire 1 8 upTemp $end
$var wire 1 9 userMode $end

$scope module i1 $end
$var wire 1 : gnd $end
$var wire 1 ; vcc $end
$var wire 1 < unknown $end
$var wire 1 = devoe $end
$var wire 1 > devclrn $end
$var wire 1 ? devpor $end
$var wire 1 @ ww_devoe $end
$var wire 1 A ww_devclrn $end
$var wire 1 B ww_devpor $end
$var wire 1 C ww_clk $end
$var wire 1 D ww_reset $end
$var wire 1 E ww_init $end
$var wire 1 F ww_userMode $end
$var wire 1 G ww_enCool $end
$var wire 1 H ww_enCnt $end
$var wire 1 I ww_tempVal [7] $end
$var wire 1 J ww_tempVal [6] $end
$var wire 1 K ww_tempVal [5] $end
$var wire 1 L ww_tempVal [4] $end
$var wire 1 M ww_tempVal [3] $end
$var wire 1 N ww_tempVal [2] $end
$var wire 1 O ww_tempVal [1] $end
$var wire 1 P ww_tempVal [0] $end
$var wire 1 Q ww_upTemp $end
$var wire 1 R ww_downTemp $end
$var wire 1 S ww_cooled $end
$var wire 1 T ww_tempOut [7] $end
$var wire 1 U ww_tempOut [6] $end
$var wire 1 V ww_tempOut [5] $end
$var wire 1 W ww_tempOut [4] $end
$var wire 1 X ww_tempOut [3] $end
$var wire 1 Y ww_tempOut [2] $end
$var wire 1 Z ww_tempOut [1] $end
$var wire 1 [ ww_tempOut [0] $end
$var wire 1 \ \cooled~output_o\ $end
$var wire 1 ] \tempOut[0]~output_o\ $end
$var wire 1 ^ \tempOut[1]~output_o\ $end
$var wire 1 _ \tempOut[2]~output_o\ $end
$var wire 1 ` \tempOut[3]~output_o\ $end
$var wire 1 a \tempOut[4]~output_o\ $end
$var wire 1 b \tempOut[5]~output_o\ $end
$var wire 1 c \tempOut[6]~output_o\ $end
$var wire 1 d \tempOut[7]~output_o\ $end
$var wire 1 e \clk~input_o\ $end
$var wire 1 f \reset~input_o\ $end
$var wire 1 g \init~input_o\ $end
$var wire 1 h \s_temp~5_combout\ $end
$var wire 1 i \enCool~input_o\ $end
$var wire 1 j \enCnt~input_o\ $end
$var wire 1 k \s_cooled~0_combout\ $end
$var wire 1 l \tempVal[0]~input_o\ $end
$var wire 1 m \userMode~input_o\ $end
$var wire 1 n \s_temp~6_combout\ $end
$var wire 1 o \s_temp~7_combout\ $end
$var wire 1 p \Add0~0_combout\ $end
$var wire 1 q \Add1~0_combout\ $end
$var wire 1 r \downTemp~input_o\ $end
$var wire 1 s \upTemp~input_o\ $end
$var wire 1 t \Add1~1\ $end
$var wire 1 u \Add1~2_combout\ $end
$var wire 1 v \s_setTempUser[2]~6_combout\ $end
$var wire 1 w \Add1~3\ $end
$var wire 1 x \Add1~4_combout\ $end
$var wire 1 y \Add1~5\ $end
$var wire 1 z \Add1~6_combout\ $end
$var wire 1 { \Add1~7\ $end
$var wire 1 | \Add1~8_combout\ $end
$var wire 1 } \s_setTempUser[5]~7_combout\ $end
$var wire 1 ~ \Add1~9\ $end
$var wire 1 !! \Add1~10_combout\ $end
$var wire 1 "! \s_setTempUser[6]~8_combout\ $end
$var wire 1 #! \s_setTempUser[1]~2_combout\ $end
$var wire 1 $! \Add1~11\ $end
$var wire 1 %! \Add1~12_combout\ $end
$var wire 1 &! \s_setTempUser[1]~3_combout\ $end
$var wire 1 '! \s_setTempUser[1]~0_combout\ $end
$var wire 1 (! \s_setTempUser[1]~1_combout\ $end
$var wire 1 )! \s_setTempUser[1]~4_combout\ $end
$var wire 1 *! \s_setTempUser[1]~5_combout\ $end
$var wire 1 +! \s_temp[1]~0_combout\ $end
$var wire 1 ,! \tempVal[1]~input_o\ $end
$var wire 1 -! \Add0~1\ $end
$var wire 1 .! \Add0~2_combout\ $end
$var wire 1 /! \Add0~4_combout\ $end
$var wire 1 0! \Add0~5_combout\ $end
$var wire 1 1! \tempVal[2]~input_o\ $end
$var wire 1 2! \Add0~6_combout\ $end
$var wire 1 3! \Add0~3\ $end
$var wire 1 4! \Add0~7_combout\ $end
$var wire 1 5! \s_temp[3]~1_combout\ $end
$var wire 1 6! \tempVal[3]~input_o\ $end
$var wire 1 7! \Add0~8\ $end
$var wire 1 8! \Add0~9_combout\ $end
$var wire 1 9! \Add0~11_combout\ $end
$var wire 1 :! \tempVal[4]~input_o\ $end
$var wire 1 ;! \Add0~12_combout\ $end
$var wire 1 <! \Add0~10\ $end
$var wire 1 =! \Add0~13_combout\ $end
$var wire 1 >! \s_temp[5]~2_combout\ $end
$var wire 1 ?! \tempVal[5]~input_o\ $end
$var wire 1 @! \Add0~14\ $end
$var wire 1 A! \Add0~15_combout\ $end
$var wire 1 B! \s_temp[6]~3_combout\ $end
$var wire 1 C! \tempVal[6]~input_o\ $end
$var wire 1 D! \Add0~16\ $end
$var wire 1 E! \Add0~17_combout\ $end
$var wire 1 F! \s_temp[7]~4_combout\ $end
$var wire 1 G! \tempVal[7]~input_o\ $end
$var wire 1 H! \Equal0~1_combout\ $end
$var wire 1 I! \s_temp[1]~8_combout\ $end
$var wire 1 J! \s_temp[1]~9_combout\ $end
$var wire 1 K! \Equal0~0_combout\ $end
$var wire 1 L! \s_cooled~1_combout\ $end
$var wire 1 M! \s_cooled~q\ $end
$var wire 1 N! s_temp [7] $end
$var wire 1 O! s_temp [6] $end
$var wire 1 P! s_temp [5] $end
$var wire 1 Q! s_temp [4] $end
$var wire 1 R! s_temp [3] $end
$var wire 1 S! s_temp [2] $end
$var wire 1 T! s_temp [1] $end
$var wire 1 U! s_temp [0] $end
$var wire 1 V! s_setTempUser [7] $end
$var wire 1 W! s_setTempUser [6] $end
$var wire 1 X! s_setTempUser [5] $end
$var wire 1 Y! s_setTempUser [4] $end
$var wire 1 Z! s_setTempUser [3] $end
$var wire 1 [! s_setTempUser [2] $end
$var wire 1 \! s_setTempUser [1] $end
$var wire 1 ]! s_setTempUser [0] $end
$var wire 1 ^! ALT_INV_s_temp [4] $end
$var wire 1 _! ALT_INV_s_temp [3] $end
$var wire 1 `! ALT_INV_s_temp [2] $end
$upscope $end
$upscope $end
$enddefinitions $end
#0
$dumpvars
0!
0"
0#
0$
0%
0&
1'
08
19
0:
1;
x<
1=
1>
1?
1@
1A
1B
0C
1D
0E
1F
0G
0H
0Q
0R
0S
0\
0]
0^
1_
0`
1a
0b
0c
0d
0e
1f
0g
0h
0i
0j
0k
0l
1m
1n
0o
1p
1q
0r
0s
0t
0u
1v
0w
1x
0y
1z
1{
0|
1}
1~
1!!
0"!
0#!
0$!
0%!
1&!
0'!
1(!
0)!
0*!
1+!
1,!
0-!
0.!
0/!
00!
11!
02!
03!
14!
15!
16!
07!
08!
09!
0:!
1;!
0<!
0=!
0>!
1?!
1@!
0A!
0B!
1C!
0D!
0E!
0F!
0G!
1H!
0I!
1J!
1K!
0L!
0M!
00
11
12
03
14
15
16
07
0(
0)
0*
1+
0,
1-
0.
0/
0I
1J
1K
0L
1M
1N
1O
0P
0N!
0O!
0P!
0Q!
0R!
0S!
0T!
0U!
0V!
0W!
0X!
0Y!
0Z!
0[!
0\!
x]!
1^!
x_!
1`!
0T
0U
0V
1W
0X
1Y
0Z
0[
$end
#10000
1!
1C
1e
1R!
1Q!
1P!
1O!
1T!
0^!
0p
1-!
1A!
1=!
18!
1<!
0K!
04!
17!
0H!
08!
0<!
05!
0=!
1>!
1B!
1.!
0+!
1^
1c
1b
1`
0a
0>!
1=!
1Z
1U
1V
1X
0W
1.
1,
1*
1)
1>!
0+
#20000
0!
0'
1&
18
1$
0C
0D
1E
1Q
1H
1j
1s
1g
0f
0e
0n
1/!
1u
1w
0x
1y
0z
1|
0~
0!!
1%!
1)!
1*!
1"!
1!!
1$!
0}
1z
1x
0y
0v
10!
12!
02!
0z
0%!
0"!
#30000
1!
1C
1e
1Z!
1\!
0R!
0T!
1p
0-!
14!
07!
0q
1t
1+!
0x
1y
15!
1z
0u
0w
18!
1<!
0.!
0^
0`
0=!
1x
1v
0Z
0X
0.
0,
#40000
0!
0$
0C
0H
0j
0e
#50000
1!
1C
1e
1[!
1Y!
0\!
1R!
1T!
0p
1-!
04!
17!
1q
0t
0+!
0z
0{
19!
1u
1w
1'!
00!
12!
0x
0v
0;!
0|
1~
0u
08!
0<!
1.!
1^
1`
1=!
1v
0!!
0$!
1}
1Z
1X
1.
1,
1%!
1"!
#60000
0!
1$
08
1#
0C
1H
0Q
1R
1r
0s
1j
0e
1u
1x
0y
1z
1|
1!!
0%!
0"!
0}
0z
0v
#70000
1!
1C
1e
0[!
0Y!
1\!
1S!
0Q!
0T!
0`!
1^!
1p
0-!
18!
0.!
0q
1t
1+!
1z
1{
09!
0u
0w
0'!
10!
02!
0x
1y
1v
1;!
0|
1u
1.!
13!
0^
1a
0_
14!
07!
0v
1}
0z
0{
0Z
1W
0Y
0.
1|
08!
0-
1+
0}
#80000
0!
0$
0C
0H
0j
0e
#90000
1!
1C
1e
0Z!
0\!
0S!
1Q!
1T!
1`!
0^!
0p
1-!
18!
1<!
0.!
03!
1q
0t
0+!
1x
0y
05!
1z
1{
0u
04!
17!
0=!
1.!
1^
0a
1_
08!
0<!
1v
0|
1Z
0W
1Y
1.
1}
1=!
1-
0+
#100000
0!
1$
0C
1H
1j
0e
#110000
1!
1C
1e
1[!
1Z!
1Y!
1X!
1\!
0R!
0T!
1p
0-!
14!
07!
0q
1t
1+!
1|
0~
0(!
0>!
0z
0{
19!
0x
1y
15!
1u
1w
1#!
1'!
00!
12!
1(!
1x
0y
0v
1z
0;!
0|
1~
0)!
0!!
0}
0u
0w
18!
1<!
0.!
0^
0`
0=!
0x
1y
1v
1"!
0*!
1!!
1}
0z
1)!
0Z
0X
0.
0,
1*!
0"!
1z
#120000
0!
0$
0C
0H
0j
0e
#130000
1!
1C
1e
0Z!
0\!
1S!
1R!
0Q!
0P!
1T!
0`!
1^!
0p
1-!
1=!
0@!
08!
0<!
04!
17!
1.!
13!
1q
0t
0+!
1x
0y
0'!
05!
0(!
0z
1u
1w
14!
07!
18!
0=!
1@!
0A!
0.!
03!
1^
0b
1`
1a
0_
04!
17!
1A!
08!
0x
0v
0)!
1Z
0V
1X
1W
0Y
1.
1,
0*
0*!
18!
0-
1+
#140000
0!
1$
0C
1H
1j
0e
#150000
1!
1C
1e
0R!
0T!
1p
0-!
14!
07!
08!
1.!
13!
0^
0`
04!
0Z
0X
0.
0,
#160000
0!
0$
0C
0H
0j
0e
#170000
1!
1C
1e
#180000
0!
1$
0C
1H
1j
0e
#190000
1!
1C
1e
#200000
0!
0$
0C
0H
0j
0e
#210000
1!
1C
1e
#220000
0!
1$
0#
0C
1H
0R
0r
1j
0e
#230000
1!
1C
1e
#240000
0!
0$
0&
0C
0H
0E
0g
0j
0e
1h
1+!
0/!
10!
09!
0J!
1;!
02!
#250000
1!
1C
1e
#260000
0!
1$
1%
0C
1H
1G
1i
1j
0e
1I!
1J!
#270000
1!
1C
1e
0S!
1Q!
1T!
1`!
0^!
0p
1-!
18!
1<!
0.!
03!
14!
00!
1=!
0@!
19!
1.!
0+!
1^
0a
1_
10!
0;!
0A!
1>!
12!
15!
1Z
0W
1Y
1.
0B!
02!
1-
0+
#280000
0!
0$
0C
0H
0j
0e
0I!
0J!
#290000
1!
1C
1e
#300000
0!
1$
0C
1H
1j
0e
1I!
1J!
#310000
1!
1C
1e
1R!
0Q!
1P!
0O!
0T!
1^!
1p
0-!
1A!
1D!
0=!
1@!
08!
0<!
1K!
04!
17!
18!
05!
1=!
09!
0A!
0D!
0>!
1E!
1B!
0.!
1+!
0^
0c
1b
1`
1a
00!
1F!
0E!
0B!
1;!
1>!
19!
0Z
0U
1V
1X
1W
0.
1,
1*
0)
0;!
0F!
12!
1+
#320000
0!
0$
0C
0H
0j
0e
0I!
0J!
#330000
1!
1C
1e
#340000
0!
1$
0C
1H
1j
0e
1I!
1J!
#350000
1!
1C
1e
1S!
0R!
1T!
0`!
0p
1-!
14!
07!
1.!
13!
0K!
04!
10!
08!
15!
0.!
03!
0+!
1^
0`
0_
14!
00!
09!
02!
05!
1Z
0X
0Y
1.
0,
1;!
12!
15!
0-
#360000
0!
0$
0C
0H
0j
0e
0I!
0J!
#370000
1!
1C
1e
#380000
0!
1$
0C
1H
1j
0e
1I!
1J!
#390000
1!
1C
1e
1R!
1Q!
0T!
0^!
1p
0-!
18!
1<!
04!
17!
08!
0<!
05!
0=!
19!
1.!
13!
1+!
0^
1`
0a
14!
07!
10!
0;!
0>!
1=!
09!
0Z
1X
0W
0.
1,
1;!
1>!
02!
18!
1<!
15!
0+
0=!
19!
0;!
0>!
#400000
0!
0$
0C
0H
0j
0e
0I!
0J!
#410000
1!
1C
1e
#420000
0!
1$
0C
1H
1j
0e
1I!
1J!
#430000
1!
1C
1e
0S!
0Q!
0P!
1T!
1`!
1^!
0p
1-!
1=!
0@!
08!
0<!
0.!
03!
04!
17!
00!
0=!
1@!
09!
1A!
1D!
1>!
1.!
0+!
1^
0b
1a
1_
10!
1E!
1B!
1;!
0A!
0D!
0>!
12!
18!
05!
1Z
0V
1W
1Y
1.
0*
19!
0E!
0B!
1F!
02!
1-
1+
0F!
0;!
#440000
0!
0$
0C
0H
0j
0e
0I!
0J!
#450000
1!
1C
1e
#460000
0!
1$
0C
1H
1j
0e
1I!
1J!
#470000
1!
1C
1e
0R!
0T!
1p
0-!
1K!
14!
07!
1H!
08!
15!
0J!
1L!
0.!
1+!
0^
0`
00!
09!
0Z
0X
0.
0,
1;!
12!
#480000
0!
0$
0C
0H
0j
0e
0I!
#490000
1!
1C
1e
1M!
1k
1\
1S
1"
#500000
0!
1$
0C
1H
1j
0e
0k
1I!
#510000
1!
1C
1e
#520000
0!
0$
0C
0H
0j
0e
1k
0I!
#530000
1!
1C
1e
#540000
0!
1$
0C
1H
1j
0e
0k
1I!
#550000
1!
1C
1e
#560000
0!
0$
0C
0H
0j
0e
1k
0I!
#570000
1!
1C
1e
#580000
0!
1$
0C
1H
1j
0e
0k
1I!
#590000
1!
1C
1e
#600000
0!
0$
0C
0H
0j
0e
1k
0I!
#610000
1!
1C
1e
#620000
0!
1$
0C
1H
1j
0e
0k
1I!
#630000
1!
1C
1e
#640000
0!
0$
0C
0H
0j
0e
1k
0I!
#650000
1!
1C
1e
#660000
0!
1$
0C
1H
1j
0e
0k
1I!
#670000
1!
1C
1e
#680000
0!
0$
0C
0H
0j
0e
1k
0I!
#690000
1!
1C
1e
#700000
0!
1$
0C
1H
1j
0e
0k
1I!
#710000
1!
1C
1e
#720000
0!
0$
0C
0H
0j
0e
1k
0I!
#730000
1!
1C
1e
#740000
0!
1$
0C
1H
1j
0e
0k
1I!
#750000
1!
1C
1e
#760000
0!
0$
0C
0H
0j
0e
1k
0I!
#770000
1!
1C
1e
#780000
0!
1$
0C
1H
1j
0e
0k
1I!
#790000
1!
1C
1e
#800000
0!
0$
0C
0H
0j
0e
1k
0I!
#810000
1!
1C
1e
#820000
0!
1$
0C
1H
1j
0e
0k
1I!
#830000
1!
1C
1e
#840000
0!
0$
0C
0H
0j
0e
1k
0I!
#850000
1!
1C
1e
#860000
0!
1$
0C
1H
1j
0e
0k
1I!
#870000
1!
1C
1e
#880000
0!
0$
0C
0H
0j
0e
1k
0I!
#890000
1!
1C
1e
#900000
0!
1$
0C
1H
1j
0e
0k
1I!
#910000
1!
1C
1e
#920000
0!
0$
0C
0H
0j
0e
1k
0I!
#930000
1!
0%
1C
0G
0i
1e
#940000
0!
1$
0C
1H
1j
0e
#950000
1!
1C
1e
#960000
0!
0$
0C
0H
0j
0e
#970000
1!
1C
1e
#980000
0!
1$
0C
1H
1j
0e
#990000
1!
1C
1e
